Modulos/Rx/gtkws/testRx.vcd
$date
	Fri Jun  1 17:34:33 2018
$end
$version
	Icarus Verilog
$end
$timescale
	1ps
$end
$scope module TB $end
$var wire 4 ! S [3:0] $end
$var wire 8 " data [7:0] $end
$var reg 1 # L0 $end
$var reg 1 $ L1 $end
$var reg 1 % L2 $end
$var reg 1 & L3 $end
$var reg 1 ' clk $end
$var reg 1 ( enb $end
$var reg 1 ) reset $end
$scope module prueba $end
$var wire 1 * L0 $end
$var wire 1 + L1 $end
$var wire 1 , L2 $end
$var wire 1 - L3 $end
$var wire 4 . S [3:0] $end
$var wire 8 / TL0 [7:0] $end
$var wire 8 0 TL1 [7:0] $end
$var wire 8 1 TL2 [7:0] $end
$var wire 8 2 TL3 [7:0] $end
$var wire 1 3 clk $end
$var wire 1 4 clk16 $end
$var wire 1 5 clk4 $end
$var wire 1 6 clk8 $end
$var wire 8 7 data [7:0] $end
$var wire 1 8 enb $end
$var wire 8 9 inMux [7:0] $end
$var wire 1 : reset $end
$scope module clocks $end
$var wire 1 3 clk $end
$var wire 1 8 enb $end
$var wire 1 : rst $end
$var reg 1 ; clk10 $end
$var reg 1 < clk20 $end
$var reg 1 = clk40 $end
$var reg 3 > cnt10 [2:0] $end
$upscope $end
$scope module SP0 $end
$var wire 1 3 clk $end
$var wire 1 3 clk10 $end
$var wire 1 8 enb $end
$var wire 1 * entrada $end
$var wire 1 : reset $end
$var reg 8 ? bits [7:0] $end
$var reg 4 @ contador [3:0] $end
$var reg 8 A salidas [7:0] $end
$upscope $end
$scope module SP1 $end
$var wire 1 3 clk $end
$var wire 1 3 clk10 $end
$var wire 1 8 enb $end
$var wire 1 + entrada $end
$var wire 1 : reset $end
$var reg 8 B bits [7:0] $end
$var reg 4 C contador [3:0] $end
$var reg 8 D salidas [7:0] $end
$upscope $end
$scope module SP2 $end
$var wire 1 3 clk $end
$var wire 1 3 clk10 $end
$var wire 1 8 enb $end
$var wire 1 , entrada $end
$var wire 1 : reset $end
$var reg 8 E bits [7:0] $end
$var reg 4 F contador [3:0] $end
$var reg 8 G salidas [7:0] $end
$upscope $end
$scope module SP3 $end
$var wire 1 3 clk $end
$var wire 1 3 clk10 $end
$var wire 1 8 enb $end
$var wire 1 - entrada $end
$var wire 1 : reset $end
$var reg 8 H bits [7:0] $end
$var reg 4 I contador [3:0] $end
$var reg 8 J salidas [7:0] $end
$upscope $end
$scope module ByUn $end
$var wire 8 K FL0 [7:0] $end
$var wire 8 L FL1 [7:0] $end
$var wire 8 M FL2 [7:0] $end
$var wire 8 N FL3 [7:0] $end
$var wire 1 5 clk $end
$var reg 1 O D $end
$var reg 2 P c [1:0] $end
$var reg 8 Q toDemux [7:0] $end
$upscope $end
$scope module demux $end
$var wire 8 R data [7:0] $end
$var wire 1 8 enb $end
$var reg 4 S S [3:0] $end
$var reg 8 T outmux [7:0] $end
$var reg 1 U salidaX $end
$upscope $end
$upscope $end
$upscope $end
$enddefinitions $end
#0
$dumpvars
xU
bx T
bx S
bx R
bx Q
bx P
xO
bx N
bx M
bx L
bx K
bx J
bx I
bx H
bx G
bx F
bx E
bx D
bx C
bx B
bx A
bx @
bx ?
bx >
x=
x<
x;
1:
bx 9
08
bx 7
x6
x5
x4
03
bx 2
bx 1
bx 0
bx /
bx .
0-
0,
0+
0*
1)
0(
0'
0&
0%
0$
0#
bx "
bx !
$end
#1000
0=
04
0<
06
0;
05
b1 >
b0 @
b0 C
b0 F
b0 I
1'
13
#2000
0'
03
#3000
1'
13
#4000
0'
03
#5000
b0 S
b0 !
b0 .
1(
18
0)
0:
1'
13
#6000
0'
03
#7000
bx0 J
bx0 2
bx0 N
bx0 H
b111 I
bx0 G
bx0 1
bx0 M
bx0 E
b111 F
bx0 D
bx0 0
bx0 L
bx0 B
b111 C
bx0 A
bx0 /
bx0 K
bx0 ?
b111 @
1=
14
1<
16
1;
15
b0 >
1'
13
#8000
0'
03
#9000
b1 >
b0xxxxxx0 ?
b110 @
b0xxxxxx0 B
b110 C
b0xxxxxx0 E
b110 F
b0xxxxxx0 H
b110 I
1'
13
#10000
1&
1-
1%
1,
1$
1+
1#
1*
0'
03
#11000
b1xxxxx0 H
b101 I
b1xxxxx0 E
b101 F
b1xxxxx0 B
b101 C
b1xxxxx0 ?
b101 @
0;
05
b0 >
1'
13
#12000
0'
03
#13000
b1 >
b11xxxx0 ?
b100 @
b11xxxx0 B
b100 C
b11xxxx0 E
b100 F
b11xxxx0 H
b100 I
1'
13
#14000
0'
03
#15000
b111xxx0 H
b11 I
b111xxx0 E
b11 F
b111xxx0 B
b11 C
b111xxx0 ?
b11 @
0<
06
1;
15
b0 >
0&
0-
0%
0,
0$
0+
0#
0*
1'
13
#16000
0'
03
#17000
b1 >
b1110xx0 ?
b10 @
b1110xx0 B
b10 C
b1110xx0 E
b10 F
b1110xx0 H
b10 I
1&
1-
1%
1,
1$
1+
1#
1*
1'
13
#18000
0&
0-
0%
0,
0$
0+
0#
0*
0'
03
#19000
b11100x0 H
b1 I
b11100x0 E
b1 F
b11100x0 B
b1 C
b11100x0 ?
b1 @
0;
05
b0 >
1&
1-
1%
1,
1$
1+
1#
1*
1'
13
#20000
0'
03
#21000
b1 >
b1110010 ?
b0 @
b1110010 B
b0 C
b1110010 E
b0 F
b1110010 H
b0 I
1'
13
#22000
0'
03
#23000
b1110011 J
b1110011 2
b1110011 N
b1110011 H
b111 I
b1110011 G
b1110011 1
b1110011 M
b1110011 E
b111 F
b1110011 D
b1110011 0
b1110011 L
b1110011 B
b111 C
b1110011 A
b1110011 /
b1110011 K
b1110011 ?
b111 @
0=
04
1<
16
1;
15
b0 >
0&
0-
0%
0,
0$
0+
0#
0*
1'
13
#24000
0'
03
#25000
b1 >
b1110011 ?
b110 @
b1110011 B
b110 C
b1110011 E
b110 F
b1110011 H
b110 I
1&
1-
1%
1,
1$
1+
1#
1*
1'
13
#26000
0&
0-
0%
0,
0$
0+
0'
03
#27000
b110011 H
b101 I
b110011 E
b101 F
b110011 B
b101 C
b1110011 ?
b101 @
0;
05
b0 >
1&
1-
1%
1,
1$
1+
1'
13
#28000
0'
03
#29000
b1 >
b1110011 ?
b100 @
b110011 B
b100 C
b110011 E
b100 F
b110011 H
b100 I
1'
13
#30000
0#
0*
0'
03
#31000
b110011 H
b11 I
b110011 E
b11 F
b110011 B
b11 C
b1100011 ?
b11 @
0<
06
1;
15
b0 >
0&
0-
0%
0,
0$
0+
1#
1*
1'
13
#32000
0'
03
#33000
b1 >
b1101011 ?
b10 @
b110011 B
b10 C
b110011 E
b10 F
b110011 H
b10 I
1&
1-
1%
1,
1'
13
#34000
0&
0-
0%
0,
0'
03
#35000
b110011 H
b1 I
b110011 E
b1 F
b110011 B
b1 C
b1101111 ?
b1 @
0;
05
b0 >
1&
1-
1%
1,
1'
13
#36000
0'
03
#37000
b1 >
b1101111 ?
b0 @
b110001 B
b0 C
b110011 E
b0 F
b110011 H
b0 I
1'
13
#38000
0#
0*
0'
03
#39000
b110011 J
b110011 2
b110011 N
b110011 H
b111 I
b110011 G
b110011 1
b110011 M
b110011 E
b111 F
b110000 D
b110000 0
b110000 L
b110000 B
b111 C
b1101110 A
b1101110 /
b1101110 K
b1101110 ?
b111 @
1=
14
1<
16
1;
15
b0 >
0&
0-
0%
0,
1#
1*
1'
13
#40000
1$
1+
0'
03
#41000
b1 >
b11101110 ?
b110 @
b10110000 B
b110 C
b110011 E
b110 F
b110011 H
b110 I
1&
1-
0$
0+
1'
13
#42000
0&
0-
0'
03
#43000
b110011 H
b101 I
b110011 E
b101 F
b10110000 B
b101 C
b11101110 ?
b101 @
0;
05
b0 >
1&
1-
1'
13
#44000
0'
03
#45000
b1 >
b11101110 ?
b100 @
b10010000 B
b100 C
b10011 E
b100 F
b110011 H
b100 I
1'
13
#46000
0#
0*
0'
03
#47000
b110011 H
b11 I
b11 E
b11 F
b10000000 B
b11 C
b11101110 ?
b11 @
0<
06
1;
15
b0 >
0&
0-
1%
1,
1#
1*
1'
13
#48000
0%
0,
1$
1+
0'
03
#49000
b1 >
b11101110 ?
b10 @
b10001000 B
b10 C
b11 E
b10 F
b110011 H
b10 I
1&
1-
0$
0+
1'
13
#50000
0'
03
#51000
b110111 H
b1 I
b11 E
b1 F
b10001000 B
b1 C
b11101110 ?
b1 @
0;
05
b0 >
1'
13
#52000
0'
03
#53000
b1 >
b11101110 ?
b0 @
b10001000 B
b0 C
b1 E
b0 F
b110111 H
b0 I
1'
13
#54000
0#
0*
0'
03
#55000
b110111 J
b110111 2
b110111 N
b110111 H
b111 I
b0 G
b0 1
b0 M
b0 E
b111 F
b10001000 D
b10001000 0
b10001000 L
b10001000 B
b111 C
b11101110 A
b11101110 /
b11101110 K
b11101110 ?
b111 @
0=
04
1<
16
1;
15
b0 >
1%
1,
1#
1*
1'
13
#56000
0%
0,
1$
1+
0'
03
#57000
b1 >
b11101110 ?
b110 @
b10001000 B
b110 C
b0 E
b110 F
b10110111 H
b110 I
1'
13
#58000
0'
03
#59000
b11110111 H
b101 I
b0 E
b101 F
b11001000 B
b101 C
b11101110 ?
b101 @
0;
05
b0 >
1'
13
#60000
0'
03
#61000
b1 >
b11101110 ?
b100 @
b11101000 B
b100 C
b0 E
b100 F
b11110111 H
b100 I
1'
13
#62000
0'
03
#63000
b11110111 H
b11 I
b0 E
b11 F
b11111000 B
b11 C
b11111110 ?
b11 @
0<
06
1;
15
b0 >
1'
13
#64000
0'
03
#65000
b1 >
b11111110 ?
b10 @
b11111000 B
b10 C
b0 E
b10 F
b11111111 H
b10 I
1'
13
#66000
0'
03
#67000
b11111111 H
b1 I
b0 E
b1 F
b11111100 B
b1 C
b11111110 ?
b1 @
0;
05
b0 >
1'
13
#68000
0'
03
#69000
b1 >
b11111110 ?
b0 @
b11111110 B
b0 C
b0 E
b0 F
b11111111 H
b0 I
1'
13
#70000
0'
03
#71000
b11111111 J
b11111111 2
b11111111 N
b11111111 H
b111 I
b0 E
b111 F
b11111111 D
b11111111 0
b11111111 L
b11111111 B
b111 C
b11111111 A
b11111111 /
b11111111 K
b11111111 ?
b111 @
1=
14
1<
16
1;
15
b0 >
1'
13
#72000
0'
03
#73000
b1 >
b11111111 ?
b110 @
b11111111 B
b110 C
b0 E
b110 F
b11111111 H
b110 I
1'
13
#74000
0'
03
#75000
b11111111 H
b101 I
b0 E
b101 F
b11111111 B
b101 C
b11111111 ?
b101 @
0;
05
b0 >
1'
13
#76000
0'
03
#77000
b1 >
b11111111 ?
b100 @
b11111111 B
b100 C
b0 E
b100 F
b11111111 H
b100 I
1'
13
#78000
0'
03
#79000
b11111111 H
b11 I
b0 E
b11 F
b11111111 B
b11 C
b11111111 ?
b11 @
0<
06
1;
15
b0 >
1'
13
#80000
0'
03
#81000
b1 >
b11111111 ?
b10 @
b11111111 B
b10 C
b0 E
b10 F
b11111111 H
b10 I
1'
13
#82000
0'
03
#83000
b11111111 H
b1 I
b0 E
b1 F
b11111111 B
b1 C
b11111111 ?
b1 @
0;
05
b0 >
1'
13
#84000
0'
03
#85000
b1 >
b11111111 ?
b0 @
b11111111 B
b0 C
b0 E
b0 F
b11111111 H
b0 I
1'
13
#86000
0'
03
#87000
b11111111 H
b111 I
b0 E
b111 F
b11111111 B
b111 C
b11111111 ?
b111 @
0=
04
1<
16
1;
15
b0 >
1'
13
#88000
0'
03
#89000
b1 >
b11111111 ?
b110 @
b11111111 B
b110 C
b0 E
b110 F
b11111111 H
b110 I
1'
13
#90000
0'
03
#91000
b11111111 H
b101 I
b0 E
b101 F
b11111111 B
b101 C
b11111111 ?
b101 @
0;
05
b0 >
1'
13
#92000
0'
03
#93000
b1 >
b11111111 ?
b100 @
b11111111 B
b100 C
b0 E
b100 F
b11111111 H
b100 I
1'
13
#94000
0'
03
#95000
b11111111 H
b11 I
b0 E
b11 F
b11111111 B
b11 C
b11111111 ?
b11 @
0<
06
1;
15
b0 >
1'
13
#96000
0'
03
#97000
b1 >
b11111111 ?
b10 @
b11111111 B
b10 C
b0 E
b10 F
b11111111 H
b10 I
1'
13
#98000
0'
03
#99000
b11111111 H
b1 I
b0 E
b1 F
b11111111 B
b1 C
b11111111 ?
b1 @
0;
05
b0 >
1'
13
#100000
0'
03
#101000
b1 >
b11111111 ?
b0 @
b11111111 B
b0 C
b0 E
b0 F
b11111111 H
b0 I
1'
13
#102000
0'
03
#103000
b11111111 H
b111 I
b0 E
b111 F
b11111111 B
b111 C
b11111111 ?
b111 @
1=
14
1<
16
1;
15
b0 >
1'
13
#104000
0'
03
#105000
b1 >
b11111111 ?
b110 @
b11111111 B
b110 C
b0 E
b110 F
b11111111 H
b110 I
1'
13
#106000
0'
03
#107000
b11111111 H
b101 I
b0 E
b101 F
b11111111 B
b101 C
b11111111 ?
b101 @
0;
05
b0 >
1'
13
#108000
0'
03
#109000
b1 >
b11111111 ?
b100 @
b11111111 B
b100 C
b0 E
b100 F
b11111111 H
b100 I
1'
13
#110000
0'
03
#111000
b11111111 H
b11 I
b0 E
b11 F
b11111111 B
b11 C
b11111111 ?
b11 @
0<
06
1;
15
b0 >
1'
13
#112000
0'
03
#113000
b1 >
b11111111 ?
b10 @
b11111111 B
b10 C
b0 E
b10 F
b11111111 H
b10 I
1'
13
#114000
0'
03
#115000
b11111111 H
b1 I
b0 E
b1 F
b11111111 B
b1 C
b11111111 ?
b1 @
0;
05
b0 >
1'
13
#116000
0'
03
#117000
b1 >
b11111111 ?
b0 @
b11111111 B
b0 C
b0 E
b0 F
b11111111 H
b0 I
1'
13
#118000
0'
03
#119000
b11111111 H
b111 I
b0 E
b111 F
b11111111 B
b111 C
b11111111 ?
b111 @
0=
04
1<
16
1;
15
b0 >
1'
13
